{"language":"en","tables":[{"type":"Table","id":"13760","label":"13760: Labour force, employment, unemployment and man-weeks worked, by sex, age and type of adjustment. Break adjusted figures 2006M01-2025M04","description":"","updated":"2025-05-22T06:00:00Z","firstPeriod":"2006M01","lastPeriod":"2025M04","category":"public","variableNames":["sex","age","type of adjustment","contents","month"],"source":"Statistics Norway","subjectCode":"","timeUnit":"Monthly","paths":[[{"id":"al","label":"Labour market and earnings"},{"id":"al03","label":"Unemployment"},{"id":"aku","label":"Labour force survey"}],[{"id":"al","label":"Labour market and earnings"},{"id":"al06","label":"Employment"},{"id":"aku","label":"Labour force survey"}],[{"id":"in","label":"Immigration and immigrants"},{"id":"in01","label":"Labour market and earnings"},{"id":"aku","label":"Labour force survey"}]],"links":[{"rel":"self","hreflang":"en","href":"https://data.ssb.no/api/pxwebapi/v2-beta/tables/13760?lang=en"},{"rel":"metadata","hreflang":"en","href":"https://data.ssb.no/api/pxwebapi/v2-beta/tables/13760/metadata?lang=en"},{"rel":"data","hreflang":"en","href":"https://data.ssb.no/api/pxwebapi/v2-beta/tables/13760/data?lang=en&outputFormat=json-stat2"}]},{"type":"Table","id":"14483","label":"14483: Population, by labour force status, age and sex. Seasonally adjusted figures 2009K1-2025K1","description":"","updated":"2025-05-08T06:00:00Z","firstPeriod":"2009K1","lastPeriod":"2025K1","category":"public","variableNames":["sex","age","type of adjustment","contents","quarter"],"source":"Statistics Norway","subjectCode":"","timeUnit":"Quarterly","paths":[[{"id":"al","label":"Labour market and earnings"},{"id":"al03","label":"Unemployment"},{"id":"aku","label":"Labour force survey"}],[{"id":"al","label":"Labour market and earnings"},{"id":"al06","label":"Employment"},{"id":"aku","label":"Labour force survey"}],[{"id":"in","label":"Immigration and immigrants"},{"id":"in01","label":"Labour market and earnings"},{"id":"aku","label":"Labour force survey"}]],"links":[{"rel":"self","hreflang":"en","href":"https://data.ssb.no/api/pxwebapi/v2-beta/tables/14483?lang=en"},{"rel":"metadata","hreflang":"en","href":"https://data.ssb.no/api/pxwebapi/v2-beta/tables/14483/metadata?lang=en"},{"rel":"data","hreflang":"en","href":"https://data.ssb.no/api/pxwebapi/v2-beta/tables/14483/data?lang=en&outputFormat=json-stat2"}]},{"type":"Table","id":"13618","label":"13618: Population, by labour force status, age and sex. Break adjusted figures 2009-2024","description":"","updated":"2025-02-10T07:00:00Z","firstPeriod":"2009","lastPeriod":"2024","category":"public","variableNames":["labour force status","sex","age","contents","year"],"source":"Statistics Norway","subjectCode":"","timeUnit":"Annual","paths":[[{"id":"al","label":"Labour market and earnings"},{"id":"al03","label":"Unemployment"},{"id":"aku","label":"Labour force survey"}],[{"id":"al","label":"Labour market and earnings"},{"id":"al06","label":"Employment"},{"id":"aku","label":"Labour force survey"}],[{"id":"in","label":"Immigration and immigrants"},{"id":"in01","label":"Labour market and earnings"},{"id":"aku","label":"Labour force survey"}]],"links":[{"rel":"self","hreflang":"en","href":"https://data.ssb.no/api/pxwebapi/v2-beta/tables/13618?lang=en"},{"rel":"metadata","hreflang":"en","href":"https://data.ssb.no/api/pxwebapi/v2-beta/tables/13618/metadata?lang=en"},{"rel":"data","hreflang":"en","href":"https://data.ssb.no/api/pxwebapi/v2-beta/tables/13618/data?lang=en&outputFormat=json-stat2"}]},{"type":"Table","id":"13619","label":"13619: Population, by labour force status, age and sex. Break adjusted figures 2009K1-2025K1","description":"","updated":"2025-05-08T06:00:00Z","firstPeriod":"2009K1","lastPeriod":"2025K1","category":"public","variableNames":["labour force status","sex","age","contents","quarter"],"source":"Statistics Norway","subjectCode":"","timeUnit":"Quarterly","paths":[[{"id":"al","label":"Labour market and earnings"},{"id":"al03","label":"Unemployment"},{"id":"aku","label":"Labour force survey"}],[{"id":"al","label":"Labour market and earnings"},{"id":"al06","label":"Employment"},{"id":"aku","label":"Labour force survey"}],[{"id":"in","label":"Immigration and immigrants"},{"id":"in01","label":"Labour market and earnings"},{"id":"aku","label":"Labour force survey"}]],"links":[{"rel":"self","hreflang":"en","href":"https://data.ssb.no/api/pxwebapi/v2-beta/tables/13619?lang=en"},{"rel":"metadata","hreflang":"en","href":"https://data.ssb.no/api/pxwebapi/v2-beta/tables/13619/metadata?lang=en"},{"rel":"data","hreflang":"en","href":"https://data.ssb.no/api/pxwebapi/v2-beta/tables/13619/data?lang=en&outputFormat=json-stat2"}]},{"type":"Table","id":"05110","label":"05110: Population, by labour force status, age and sex 1988K2-2025K1","description":"","updated":"2025-05-08T06:00:00Z","firstPeriod":"1988K2","lastPeriod":"2025K1","category":"public","variableNames":["labour force status","sex","age","contents","quarter"],"source":"Statistics Norway","subjectCode":"","timeUnit":"Quarterly","paths":[[{"id":"al","label":"Labour market and earnings"},{"id":"al03","label":"Unemployment"},{"id":"aku","label":"Labour force survey"}],[{"id":"al","label":"Labour market and earnings"},{"id":"al06","label":"Employment"},{"id":"aku","label":"Labour force survey"}],[{"id":"in","label":"Immigration and immigrants"},{"id":"in01","label":"Labour market and earnings"},{"id":"aku","label":"Labour force survey"}]],"links":[{"rel":"self","hreflang":"en","href":"https://data.ssb.no/api/pxwebapi/v2-beta/tables/05110?lang=en"},{"rel":"metadata","hreflang":"en","href":"https://data.ssb.no/api/pxwebapi/v2-beta/tables/05110/metadata?lang=en"},{"rel":"data","hreflang":"en","href":"https://data.ssb.no/api/pxwebapi/v2-beta/tables/05110/data?lang=en&outputFormat=json-stat2"}]},{"type":"Table","id":"05111","label":"05111: Population, by labour force status, age and sex 1972-2024","description":"","updated":"2025-02-10T07:00:00Z","firstPeriod":"1972","lastPeriod":"2024","category":"public","variableNames":["labour force status","sex","age","contents","year"],"source":"Statistics Norway","subjectCode":"","timeUnit":"Annual","paths":[[{"id":"al","label":"Labour market and earnings"},{"id":"al03","label":"Unemployment"},{"id":"aku","label":"Labour force survey"}],[{"id":"al","label":"Labour market and earnings"},{"id":"al06","label":"Employment"},{"id":"aku","label":"Labour force survey"}],[{"id":"in","label":"Immigration and immigrants"},{"id":"in01","label":"Labour market and earnings"},{"id":"aku","label":"Labour force survey"}]],"links":[{"rel":"self","hreflang":"en","href":"https://data.ssb.no/api/pxwebapi/v2-beta/tables/05111?lang=en"},{"rel":"metadata","hreflang":"en","href":"https://data.ssb.no/api/pxwebapi/v2-beta/tables/05111/metadata?lang=en"},{"rel":"data","hreflang":"en","href":"https://data.ssb.no/api/pxwebapi/v2-beta/tables/05111/data?lang=en&outputFormat=json-stat2"}]},{"type":"Table","id":"14077","label":"14077: Persons in education in the last four weeks, by sex, age and labour force status 2021K1-2025K1","description":"","updated":"2025-05-08T06:00:00Z","firstPeriod":"2021K1","lastPeriod":"2025K1","category":"public","variableNames":["sex","age","labour force status","contents","quarter"],"source":"Statistics Norway","subjectCode":"","timeUnit":"Quarterly","paths":[[{"id":"al","label":"Labour market and earnings"},{"id":"al03","label":"Unemployment"},{"id":"aku","label":"Labour force survey"}],[{"id":"al","label":"Labour market and earnings"},{"id":"al06","label":"Employment"},{"id":"aku","label":"Labour force survey"}],[{"id":"in","label":"Immigration and immigrants"},{"id":"in01","label":"Labour market and earnings"},{"id":"aku","label":"Labour force survey"}]],"links":[{"rel":"self","hreflang":"en","href":"https://data.ssb.no/api/pxwebapi/v2-beta/tables/14077?lang=en"},{"rel":"metadata","hreflang":"en","href":"https://data.ssb.no/api/pxwebapi/v2-beta/tables/14077/metadata?lang=en"},{"rel":"data","hreflang":"en","href":"https://data.ssb.no/api/pxwebapi/v2-beta/tables/14077/data?lang=en&outputFormat=json-stat2"}]},{"type":"Table","id":"14090","label":"14090: Persons in education in the last four weeks, by sex, age and labour force status 2021-2024","description":"","updated":"2025-02-10T07:00:00Z","firstPeriod":"2021","lastPeriod":"2024","category":"public","variableNames":["sex","age","labour force status","contents","year"],"source":"Statistics Norway","subjectCode":"","timeUnit":"Annual","paths":[[{"id":"al","label":"Labour market and earnings"},{"id":"al03","label":"Unemployment"},{"id":"aku","label":"Labour force survey"}],[{"id":"al","label":"Labour market and earnings"},{"id":"al06","label":"Employment"},{"id":"aku","label":"Labour force survey"}],[{"id":"in","label":"Immigration and immigrants"},{"id":"in01","label":"Labour market and earnings"},{"id":"aku","label":"Labour force survey"}]],"links":[{"rel":"self","hreflang":"en","href":"https://data.ssb.no/api/pxwebapi/v2-beta/tables/14090?lang=en"},{"rel":"metadata","hreflang":"en","href":"https://data.ssb.no/api/pxwebapi/v2-beta/tables/14090/metadata?lang=en"},{"rel":"data","hreflang":"en","href":"https://data.ssb.no/api/pxwebapi/v2-beta/tables/14090/data?lang=en&outputFormat=json-stat2"}]},{"type":"Table","id":"13784","label":"13784: Population, by labour force status, sex, age and education 2021K1-2025K1","description":"","updated":"2025-05-08T06:00:00Z","firstPeriod":"2021K1","lastPeriod":"2025K1","category":"public","variableNames":["labour force status","sex","age","level of education","contents","quarter"],"source":"Statistics Norway","subjectCode":"","timeUnit":"Quarterly","paths":[[{"id":"al","label":"Labour market and earnings"},{"id":"al03","label":"Unemployment"},{"id":"aku","label":"Labour force survey"}],[{"id":"al","label":"Labour market and earnings"},{"id":"al06","label":"Employment"},{"id":"aku","label":"Labour force survey"}],[{"id":"in","label":"Immigration and immigrants"},{"id":"in01","label":"Labour market and earnings"},{"id":"aku","label":"Labour force survey"}]],"links":[{"rel":"self","hreflang":"en","href":"https://data.ssb.no/api/pxwebapi/v2-beta/tables/13784?lang=en"},{"rel":"metadata","hreflang":"en","href":"https://data.ssb.no/api/pxwebapi/v2-beta/tables/13784/metadata?lang=en"},{"rel":"data","hreflang":"en","href":"https://data.ssb.no/api/pxwebapi/v2-beta/tables/13784/data?lang=en&outputFormat=json-stat2"}]},{"type":"Table","id":"13785","label":"13785: Population, by labour force status, sex, age and education 2021-2024","description":"","updated":"2025-02-10T07:00:00Z","firstPeriod":"2021","lastPeriod":"2024","category":"public","variableNames":["labour force status","sex","age","level of education","contents","year"],"source":"Statistics Norway","subjectCode":"","timeUnit":"Annual","paths":[[{"id":"al","label":"Labour market and earnings"},{"id":"al03","label":"Unemployment"},{"id":"aku","label":"Labour force survey"}],[{"id":"al","label":"Labour market and earnings"},{"id":"al06","label":"Employment"},{"id":"aku","label":"Labour force survey"}],[{"id":"in","label":"Immigration and immigrants"},{"id":"in01","label":"Labour market and earnings"},{"id":"aku","label":"Labour force survey"}]],"links":[{"rel":"self","hreflang":"en","href":"https://data.ssb.no/api/pxwebapi/v2-beta/tables/13785?lang=en"},{"rel":"metadata","hreflang":"en","href":"https://data.ssb.no/api/pxwebapi/v2-beta/tables/13785/metadata?lang=en"},{"rel":"data","hreflang":"en","href":"https://data.ssb.no/api/pxwebapi/v2-beta/tables/13785/data?lang=en&outputFormat=json-stat2"}]},{"type":"Table","id":"03777","label":"03777: Persons in the labour force, by age and sex 1972K1-2025K1","description":"","updated":"2025-05-08T06:00:00Z","firstPeriod":"1972K1","lastPeriod":"2025K1","category":"public","variableNames":["age","sex","contents","quarter"],"source":"Statistics Norway","subjectCode":"","timeUnit":"Quarterly","paths":[[{"id":"al","label":"Labour market and earnings"},{"id":"al03","label":"Unemployment"},{"id":"aku","label":"Labour force survey"}],[{"id":"al","label":"Labour market and earnings"},{"id":"al06","label":"Employment"},{"id":"aku","label":"Labour force survey"}],[{"id":"in","label":"Immigration and immigrants"},{"id":"in01","label":"Labour market and earnings"},{"id":"aku","label":"Labour force survey"}]],"links":[{"rel":"self","hreflang":"en","href":"https://data.ssb.no/api/pxwebapi/v2-beta/tables/03777?lang=en"},{"rel":"metadata","hreflang":"en","href":"https://data.ssb.no/api/pxwebapi/v2-beta/tables/03777/metadata?lang=en"},{"rel":"data","hreflang":"en","href":"https://data.ssb.no/api/pxwebapi/v2-beta/tables/03777/data?lang=en&outputFormat=json-stat2"}]},{"type":"Table","id":"03780","label":"03780: Persons in the labour force, by age and sex 1972-2024","description":"","updated":"2025-02-10T07:00:00Z","firstPeriod":"1972","lastPeriod":"2024","category":"public","variableNames":["age","sex","contents","year"],"source":"Statistics Norway","subjectCode":"","timeUnit":"Annual","paths":[[{"id":"al","label":"Labour market and earnings"},{"id":"al03","label":"Unemployment"},{"id":"aku","label":"Labour force survey"}],[{"id":"al","label":"Labour market and earnings"},{"id":"al06","label":"Employment"},{"id":"aku","label":"Labour force survey"}],[{"id":"in","label":"Immigration and immigrants"},{"id":"in01","label":"Labour market and earnings"},{"id":"aku","label":"Labour force survey"}]],"links":[{"rel":"self","hreflang":"en","href":"https://data.ssb.no/api/pxwebapi/v2-beta/tables/03780?lang=en"},{"rel":"metadata","hreflang":"en","href":"https://data.ssb.no/api/pxwebapi/v2-beta/tables/03780/metadata?lang=en"},{"rel":"data","hreflang":"en","href":"https://data.ssb.no/api/pxwebapi/v2-beta/tables/03780/data?lang=en&outputFormat=json-stat2"}]},{"type":"Table","id":"11433","label":"11433: Flows between labour force statuses, by sex 2006K2-2025K1","description":"","updated":"2025-05-08T06:00:00Z","firstPeriod":"2006K2","lastPeriod":"2025K1","category":"public","variableNames":["change in labour force status","sex","contents","quarter"],"source":"Statistics Norway","subjectCode":"","timeUnit":"Quarterly","paths":[[{"id":"al","label":"Labour market and earnings"},{"id":"al03","label":"Unemployment"},{"id":"aku","label":"Labour force survey"}],[{"id":"al","label":"Labour market and earnings"},{"id":"al06","label":"Employment"},{"id":"aku","label":"Labour force survey"}],[{"id":"in","label":"Immigration and immigrants"},{"id":"in01","label":"Labour market and earnings"},{"id":"aku","label":"Labour force survey"}]],"links":[{"rel":"self","hreflang":"en","href":"https://data.ssb.no/api/pxwebapi/v2-beta/tables/11433?lang=en"},{"rel":"metadata","hreflang":"en","href":"https://data.ssb.no/api/pxwebapi/v2-beta/tables/11433/metadata?lang=en"},{"rel":"data","hreflang":"en","href":"https://data.ssb.no/api/pxwebapi/v2-beta/tables/11433/data?lang=en&outputFormat=json-stat2"}]},{"type":"Table","id":"08518","label":"08518: Unemployed persons, by age and sex 1972K1-2025K1","description":"","updated":"2025-05-08T06:00:00Z","firstPeriod":"1972K1","lastPeriod":"2025K1","category":"public","variableNames":["sex","age","contents","quarter"],"source":"Statistics Norway","subjectCode":"","timeUnit":"Quarterly","paths":[[{"id":"al","label":"Labour market and earnings"},{"id":"al03","label":"Unemployment"},{"id":"aku","label":"Labour force survey"}],[{"id":"al","label":"Labour market and earnings"},{"id":"al06","label":"Employment"},{"id":"aku","label":"Labour force survey"}],[{"id":"in","label":"Immigration and immigrants"},{"id":"in01","label":"Labour market and earnings"},{"id":"aku","label":"Labour force survey"}]],"links":[{"rel":"self","hreflang":"en","href":"https://data.ssb.no/api/pxwebapi/v2-beta/tables/08518?lang=en"},{"rel":"metadata","hreflang":"en","href":"https://data.ssb.no/api/pxwebapi/v2-beta/tables/08518/metadata?lang=en"},{"rel":"data","hreflang":"en","href":"https://data.ssb.no/api/pxwebapi/v2-beta/tables/08518/data?lang=en&outputFormat=json-stat2"}]},{"type":"Table","id":"08517","label":"08517: Unemployed persons, by age and sex 1972-2024","description":"","updated":"2025-02-10T07:00:00Z","firstPeriod":"1972","lastPeriod":"2024","category":"public","variableNames":["sex","age","contents","year"],"source":"Statistics Norway","subjectCode":"","timeUnit":"Annual","paths":[[{"id":"al","label":"Labour market and earnings"},{"id":"al03","label":"Unemployment"},{"id":"aku","label":"Labour force survey"}],[{"id":"al","label":"Labour market and earnings"},{"id":"al06","label":"Employment"},{"id":"aku","label":"Labour force survey"}],[{"id":"in","label":"Immigration and immigrants"},{"id":"in01","label":"Labour market and earnings"},{"id":"aku","label":"Labour force survey"}]],"links":[{"rel":"self","hreflang":"en","href":"https://data.ssb.no/api/pxwebapi/v2-beta/tables/08517?lang=en"},{"rel":"metadata","hreflang":"en","href":"https://data.ssb.no/api/pxwebapi/v2-beta/tables/08517/metadata?lang=en"},{"rel":"data","hreflang":"en","href":"https://data.ssb.no/api/pxwebapi/v2-beta/tables/08517/data?lang=en&outputFormat=json-stat2"}]},{"type":"Table","id":"04552","label":"04552: Unemployed persons, by duration of job search and sex (1 000 persons) 1996K1-2025K1","description":"","updated":"2025-05-08T06:00:00Z","firstPeriod":"1996K1","lastPeriod":"2025K1","category":"public","variableNames":["sex","duration of job search","contents","quarter"],"source":"Statistics Norway","subjectCode":"","timeUnit":"Quarterly","paths":[[{"id":"al","label":"Labour market and earnings"},{"id":"al03","label":"Unemployment"},{"id":"aku","label":"Labour force survey"}],[{"id":"al","label":"Labour market and earnings"},{"id":"al06","label":"Employment"},{"id":"aku","label":"Labour force survey"}],[{"id":"in","label":"Immigration and immigrants"},{"id":"in01","label":"Labour market and earnings"},{"id":"aku","label":"Labour force survey"}]],"links":[{"rel":"self","hreflang":"en","href":"https://data.ssb.no/api/pxwebapi/v2-beta/tables/04552?lang=en"},{"rel":"metadata","hreflang":"en","href":"https://data.ssb.no/api/pxwebapi/v2-beta/tables/04552/metadata?lang=en"},{"rel":"data","hreflang":"en","href":"https://data.ssb.no/api/pxwebapi/v2-beta/tables/04552/data?lang=en&outputFormat=json-stat2"}]},{"type":"Table","id":"04553","label":"04553: Unemployed persons, by duration of job search and sex (1 000 persons) 1996-2024","description":"","updated":"2025-02-10T07:00:00Z","firstPeriod":"1996","lastPeriod":"2024","category":"public","variableNames":["sex","duration of job search","contents","year"],"source":"Statistics Norway","subjectCode":"","timeUnit":"Annual","paths":[[{"id":"al","label":"Labour market and earnings"},{"id":"al03","label":"Unemployment"},{"id":"aku","label":"Labour force survey"}],[{"id":"al","label":"Labour market and earnings"},{"id":"al06","label":"Employment"},{"id":"aku","label":"Labour force survey"}],[{"id":"in","label":"Immigration and immigrants"},{"id":"in01","label":"Labour market and earnings"},{"id":"aku","label":"Labour force survey"}]],"links":[{"rel":"self","hreflang":"en","href":"https://data.ssb.no/api/pxwebapi/v2-beta/tables/04553?lang=en"},{"rel":"metadata","hreflang":"en","href":"https://data.ssb.no/api/pxwebapi/v2-beta/tables/04553/metadata?lang=en"},{"rel":"data","hreflang":"en","href":"https://data.ssb.no/api/pxwebapi/v2-beta/tables/04553/data?lang=en&outputFormat=json-stat2"}]},{"type":"Table","id":"13891","label":"13891: Unemployed persons, by sex, main activity and age 2021K1-2025K1","description":"","updated":"2025-05-08T06:00:00Z","firstPeriod":"2021K1","lastPeriod":"2025K1","category":"public","variableNames":["sex","main activity","age","contents","quarter"],"source":"Statistics Norway","subjectCode":"","timeUnit":"Quarterly","paths":[[{"id":"al","label":"Labour market and earnings"},{"id":"al03","label":"Unemployment"},{"id":"aku","label":"Labour force survey"}],[{"id":"al","label":"Labour market and earnings"},{"id":"al06","label":"Employment"},{"id":"aku","label":"Labour force survey"}],[{"id":"in","label":"Immigration and immigrants"},{"id":"in01","label":"Labour market and earnings"},{"id":"aku","label":"Labour force survey"}]],"links":[{"rel":"self","hreflang":"en","href":"https://data.ssb.no/api/pxwebapi/v2-beta/tables/13891?lang=en"},{"rel":"metadata","hreflang":"en","href":"https://data.ssb.no/api/pxwebapi/v2-beta/tables/13891/metadata?lang=en"},{"rel":"data","hreflang":"en","href":"https://data.ssb.no/api/pxwebapi/v2-beta/tables/13891/data?lang=en&outputFormat=json-stat2"}]},{"type":"Table","id":"13892","label":"13892: Unemployed persons, by sex, main activity and age 2021-2024","description":"","updated":"2025-02-10T07:00:00Z","firstPeriod":"2021","lastPeriod":"2024","category":"public","variableNames":["sex","main activity","age","contents","year"],"source":"Statistics Norway","subjectCode":"","timeUnit":"Annual","paths":[[{"id":"al","label":"Labour market and earnings"},{"id":"al03","label":"Unemployment"},{"id":"aku","label":"Labour force survey"}],[{"id":"al","label":"Labour market and earnings"},{"id":"al06","label":"Employment"},{"id":"aku","label":"Labour force survey"}],[{"id":"in","label":"Immigration and immigrants"},{"id":"in01","label":"Labour market and earnings"},{"id":"aku","label":"Labour force survey"}]],"links":[{"rel":"self","hreflang":"en","href":"https://data.ssb.no/api/pxwebapi/v2-beta/tables/13892?lang=en"},{"rel":"metadata","hreflang":"en","href":"https://data.ssb.no/api/pxwebapi/v2-beta/tables/13892/metadata?lang=en"},{"rel":"data","hreflang":"en","href":"https://data.ssb.no/api/pxwebapi/v2-beta/tables/13892/data?lang=en&outputFormat=json-stat2"}]},{"type":"Table","id":"14454","label":"14454: Unemployed persons, by sex, age and job seeker status in NAV (1 000 persons) 2021-2024","description":"","updated":"2025-02-10T07:00:00Z","firstPeriod":"2021","lastPeriod":"2024","category":"public","variableNames":["sex","age","job seeker status in NAV","contents","year"],"source":"Statistics Norway","subjectCode":"","timeUnit":"Annual","paths":[[{"id":"al","label":"Labour market and earnings"},{"id":"al03","label":"Unemployment"},{"id":"aku","label":"Labour force survey"}],[{"id":"al","label":"Labour market and earnings"},{"id":"al06","label":"Employment"},{"id":"aku","label":"Labour force survey"}],[{"id":"in","label":"Immigration and immigrants"},{"id":"in01","label":"Labour market and earnings"},{"id":"aku","label":"Labour force survey"}]],"links":[{"rel":"self","hreflang":"en","href":"https://data.ssb.no/api/pxwebapi/v2-beta/tables/14454?lang=en"},{"rel":"metadata","hreflang":"en","href":"https://data.ssb.no/api/pxwebapi/v2-beta/tables/14454/metadata?lang=en"},{"rel":"data","hreflang":"en","href":"https://data.ssb.no/api/pxwebapi/v2-beta/tables/14454/data?lang=en&outputFormat=json-stat2"}]}],"page":{"pageNumber":1,"pageSize":20,"totalElements":7510,"totalPages":376,"links":[{"rel":"next","hreflang":"en","href":"https://data.ssb.no/api/pxwebapi/v2-beta/tables/?lang=en&pagesize=20&pageNumber=2"},{"rel":"last","hreflang":"en","href":"https://data.ssb.no/api/pxwebapi/v2-beta/tables/?lang=en&pagesize=20&pageNumber=376"}]},"links":[{"rel":"self","hreflang":"en","href":"https://data.ssb.no/api/pxwebapi/v2-beta/tables/?lang=en&pagesize=20&pageNumber=1"}]}