{"language":"no","tables":[{"type":"Table","id":"13760","label":"13760: Arbeidsstyrken, sysselsatte, arbeidsledige og utførte ukeverk, etter kjønn, alder og type justering. Bruddjusterte tall 2006M01-2025M04","description":"","updated":"2025-05-22T06:00:00Z","firstPeriod":"2006M01","lastPeriod":"2025M04","category":"public","variableNames":["kjønn","alder","type justering","statistikkvariabel","måned"],"source":"Statistisk sentralbyrå","subjectCode":"","timeUnit":"Monthly","paths":[[{"id":"al","label":"Arbeid og lønn"},{"id":"al03","label":"Arbeidsledighet"},{"id":"aku","label":"Arbeidskraftundersøkelsen"}],[{"id":"al","label":"Arbeid og lønn"},{"id":"al06","label":"Sysselsetting"},{"id":"aku","label":"Arbeidskraftundersøkelsen"}],[{"id":"in","label":"Innvandring og innvandrere"},{"id":"in01","label":"Arbeid og lønn"},{"id":"aku","label":"Arbeidskraftundersøkelsen"}]],"links":[{"rel":"self","hreflang":"no","href":"https://data.ssb.no/api/pxwebapi/v2-beta/tables/13760?lang=no"},{"rel":"metadata","hreflang":"no","href":"https://data.ssb.no/api/pxwebapi/v2-beta/tables/13760/metadata?lang=no"},{"rel":"data","hreflang":"no","href":"https://data.ssb.no/api/pxwebapi/v2-beta/tables/13760/data?lang=no&outputFormat=json-stat2"}]},{"type":"Table","id":"14483","label":"14483: Personer, etter arbeidsstyrkestatus, kjønn og alder. Sesongjusterte tall 2009K1-2025K1","description":"","updated":"2025-05-08T06:00:00Z","firstPeriod":"2009K1","lastPeriod":"2025K1","category":"public","variableNames":["kjønn","alder","type justering","statistikkvariabel","kvartal"],"source":"Statistisk sentralbyrå","subjectCode":"","timeUnit":"Quarterly","paths":[[{"id":"al","label":"Arbeid og lønn"},{"id":"al03","label":"Arbeidsledighet"},{"id":"aku","label":"Arbeidskraftundersøkelsen"}],[{"id":"al","label":"Arbeid og lønn"},{"id":"al06","label":"Sysselsetting"},{"id":"aku","label":"Arbeidskraftundersøkelsen"}],[{"id":"in","label":"Innvandring og innvandrere"},{"id":"in01","label":"Arbeid og lønn"},{"id":"aku","label":"Arbeidskraftundersøkelsen"}]],"links":[{"rel":"self","hreflang":"no","href":"https://data.ssb.no/api/pxwebapi/v2-beta/tables/14483?lang=no"},{"rel":"metadata","hreflang":"no","href":"https://data.ssb.no/api/pxwebapi/v2-beta/tables/14483/metadata?lang=no"},{"rel":"data","hreflang":"no","href":"https://data.ssb.no/api/pxwebapi/v2-beta/tables/14483/data?lang=no&outputFormat=json-stat2"}]},{"type":"Table","id":"13618","label":"13618: Personer, etter arbeidsstyrkestatus, kjønn og alder. Bruddjusterte tall 2009-2024","description":"","updated":"2025-02-10T07:00:00Z","firstPeriod":"2009","lastPeriod":"2024","category":"public","variableNames":["arbeidsstyrkestatus","kjønn","alder","statistikkvariabel","år"],"source":"Statistisk sentralbyrå","subjectCode":"","timeUnit":"Annual","paths":[[{"id":"al","label":"Arbeid og lønn"},{"id":"al03","label":"Arbeidsledighet"},{"id":"aku","label":"Arbeidskraftundersøkelsen"}],[{"id":"al","label":"Arbeid og lønn"},{"id":"al06","label":"Sysselsetting"},{"id":"aku","label":"Arbeidskraftundersøkelsen"}],[{"id":"in","label":"Innvandring og innvandrere"},{"id":"in01","label":"Arbeid og lønn"},{"id":"aku","label":"Arbeidskraftundersøkelsen"}]],"links":[{"rel":"self","hreflang":"no","href":"https://data.ssb.no/api/pxwebapi/v2-beta/tables/13618?lang=no"},{"rel":"metadata","hreflang":"no","href":"https://data.ssb.no/api/pxwebapi/v2-beta/tables/13618/metadata?lang=no"},{"rel":"data","hreflang":"no","href":"https://data.ssb.no/api/pxwebapi/v2-beta/tables/13618/data?lang=no&outputFormat=json-stat2"}]},{"type":"Table","id":"13619","label":"13619: Personer, etter arbeidsstyrkestatus, kjønn og alder. Bruddjusterte tall 2009K1-2025K1","description":"","updated":"2025-05-08T06:00:00Z","firstPeriod":"2009K1","lastPeriod":"2025K1","category":"public","variableNames":["arbeidsstyrkestatus","kjønn","alder","statistikkvariabel","kvartal"],"source":"Statistisk sentralbyrå","subjectCode":"","timeUnit":"Quarterly","paths":[[{"id":"al","label":"Arbeid og lønn"},{"id":"al03","label":"Arbeidsledighet"},{"id":"aku","label":"Arbeidskraftundersøkelsen"}],[{"id":"al","label":"Arbeid og lønn"},{"id":"al06","label":"Sysselsetting"},{"id":"aku","label":"Arbeidskraftundersøkelsen"}],[{"id":"in","label":"Innvandring og innvandrere"},{"id":"in01","label":"Arbeid og lønn"},{"id":"aku","label":"Arbeidskraftundersøkelsen"}]],"links":[{"rel":"self","hreflang":"no","href":"https://data.ssb.no/api/pxwebapi/v2-beta/tables/13619?lang=no"},{"rel":"metadata","hreflang":"no","href":"https://data.ssb.no/api/pxwebapi/v2-beta/tables/13619/metadata?lang=no"},{"rel":"data","hreflang":"no","href":"https://data.ssb.no/api/pxwebapi/v2-beta/tables/13619/data?lang=no&outputFormat=json-stat2"}]},{"type":"Table","id":"05110","label":"05110: Personer, etter arbeidsstyrkestatus, kjønn og alder 1988K2-2025K1","description":"","updated":"2025-05-08T06:00:00Z","firstPeriod":"1988K2","lastPeriod":"2025K1","category":"public","variableNames":["arbeidsstyrkestatus","kjønn","alder","statistikkvariabel","kvartal"],"source":"Statistisk sentralbyrå","subjectCode":"","timeUnit":"Quarterly","paths":[[{"id":"al","label":"Arbeid og lønn"},{"id":"al03","label":"Arbeidsledighet"},{"id":"aku","label":"Arbeidskraftundersøkelsen"}],[{"id":"al","label":"Arbeid og lønn"},{"id":"al06","label":"Sysselsetting"},{"id":"aku","label":"Arbeidskraftundersøkelsen"}],[{"id":"in","label":"Innvandring og innvandrere"},{"id":"in01","label":"Arbeid og lønn"},{"id":"aku","label":"Arbeidskraftundersøkelsen"}]],"links":[{"rel":"self","hreflang":"no","href":"https://data.ssb.no/api/pxwebapi/v2-beta/tables/05110?lang=no"},{"rel":"metadata","hreflang":"no","href":"https://data.ssb.no/api/pxwebapi/v2-beta/tables/05110/metadata?lang=no"},{"rel":"data","hreflang":"no","href":"https://data.ssb.no/api/pxwebapi/v2-beta/tables/05110/data?lang=no&outputFormat=json-stat2"}]},{"type":"Table","id":"05111","label":"05111: Personer, etter arbeidsstyrkestatus, kjønn og alder 1972-2024","description":"","updated":"2025-02-10T07:00:00Z","firstPeriod":"1972","lastPeriod":"2024","category":"public","variableNames":["arbeidsstyrkestatus","kjønn","alder","statistikkvariabel","år"],"source":"Statistisk sentralbyrå","subjectCode":"","timeUnit":"Annual","paths":[[{"id":"al","label":"Arbeid og lønn"},{"id":"al03","label":"Arbeidsledighet"},{"id":"aku","label":"Arbeidskraftundersøkelsen"}],[{"id":"al","label":"Arbeid og lønn"},{"id":"al06","label":"Sysselsetting"},{"id":"aku","label":"Arbeidskraftundersøkelsen"}],[{"id":"in","label":"Innvandring og innvandrere"},{"id":"in01","label":"Arbeid og lønn"},{"id":"aku","label":"Arbeidskraftundersøkelsen"}]],"links":[{"rel":"self","hreflang":"no","href":"https://data.ssb.no/api/pxwebapi/v2-beta/tables/05111?lang=no"},{"rel":"metadata","hreflang":"no","href":"https://data.ssb.no/api/pxwebapi/v2-beta/tables/05111/metadata?lang=no"},{"rel":"data","hreflang":"no","href":"https://data.ssb.no/api/pxwebapi/v2-beta/tables/05111/data?lang=no&outputFormat=json-stat2"}]},{"type":"Table","id":"14077","label":"14077: Personer under utdanning siste fire uker, etter kjønn, alder og arbeidsstyrkestatus 2021K1-2025K1","description":"","updated":"2025-05-08T06:00:00Z","firstPeriod":"2021K1","lastPeriod":"2025K1","category":"public","variableNames":["kjønn","alder","arbeidsstyrkestatus","statistikkvariabel","kvartal"],"source":"Statistisk sentralbyrå","subjectCode":"","timeUnit":"Quarterly","paths":[[{"id":"al","label":"Arbeid og lønn"},{"id":"al03","label":"Arbeidsledighet"},{"id":"aku","label":"Arbeidskraftundersøkelsen"}],[{"id":"al","label":"Arbeid og lønn"},{"id":"al06","label":"Sysselsetting"},{"id":"aku","label":"Arbeidskraftundersøkelsen"}],[{"id":"in","label":"Innvandring og innvandrere"},{"id":"in01","label":"Arbeid og lønn"},{"id":"aku","label":"Arbeidskraftundersøkelsen"}]],"links":[{"rel":"self","hreflang":"no","href":"https://data.ssb.no/api/pxwebapi/v2-beta/tables/14077?lang=no"},{"rel":"metadata","hreflang":"no","href":"https://data.ssb.no/api/pxwebapi/v2-beta/tables/14077/metadata?lang=no"},{"rel":"data","hreflang":"no","href":"https://data.ssb.no/api/pxwebapi/v2-beta/tables/14077/data?lang=no&outputFormat=json-stat2"}]},{"type":"Table","id":"14090","label":"14090: Personer under utdanning siste fire uker, etter kjønn, alder og arbeidsstyrkestatus 2021-2024","description":"","updated":"2025-02-10T07:00:00Z","firstPeriod":"2021","lastPeriod":"2024","category":"public","variableNames":["kjønn","alder","arbeidsstyrkestatus","statistikkvariabel","år"],"source":"Statistisk sentralbyrå","subjectCode":"","timeUnit":"Annual","paths":[[{"id":"al","label":"Arbeid og lønn"},{"id":"al03","label":"Arbeidsledighet"},{"id":"aku","label":"Arbeidskraftundersøkelsen"}],[{"id":"al","label":"Arbeid og lønn"},{"id":"al06","label":"Sysselsetting"},{"id":"aku","label":"Arbeidskraftundersøkelsen"}],[{"id":"in","label":"Innvandring og innvandrere"},{"id":"in01","label":"Arbeid og lønn"},{"id":"aku","label":"Arbeidskraftundersøkelsen"}]],"links":[{"rel":"self","hreflang":"no","href":"https://data.ssb.no/api/pxwebapi/v2-beta/tables/14090?lang=no"},{"rel":"metadata","hreflang":"no","href":"https://data.ssb.no/api/pxwebapi/v2-beta/tables/14090/metadata?lang=no"},{"rel":"data","hreflang":"no","href":"https://data.ssb.no/api/pxwebapi/v2-beta/tables/14090/data?lang=no&outputFormat=json-stat2"}]},{"type":"Table","id":"13784","label":"13784: Personer, etter arbeidsstyrkestatus, kjønn, alder og utdanningsnivå 2021K1-2025K1","description":"","updated":"2025-05-08T06:00:00Z","firstPeriod":"2021K1","lastPeriod":"2025K1","category":"public","variableNames":["arbeidsstyrkestatus","kjønn","alder","utdanningsnivå","statistikkvariabel","kvartal"],"source":"Statistisk sentralbyrå","subjectCode":"","timeUnit":"Quarterly","paths":[[{"id":"al","label":"Arbeid og lønn"},{"id":"al03","label":"Arbeidsledighet"},{"id":"aku","label":"Arbeidskraftundersøkelsen"}],[{"id":"al","label":"Arbeid og lønn"},{"id":"al06","label":"Sysselsetting"},{"id":"aku","label":"Arbeidskraftundersøkelsen"}],[{"id":"in","label":"Innvandring og innvandrere"},{"id":"in01","label":"Arbeid og lønn"},{"id":"aku","label":"Arbeidskraftundersøkelsen"}]],"links":[{"rel":"self","hreflang":"no","href":"https://data.ssb.no/api/pxwebapi/v2-beta/tables/13784?lang=no"},{"rel":"metadata","hreflang":"no","href":"https://data.ssb.no/api/pxwebapi/v2-beta/tables/13784/metadata?lang=no"},{"rel":"data","hreflang":"no","href":"https://data.ssb.no/api/pxwebapi/v2-beta/tables/13784/data?lang=no&outputFormat=json-stat2"}]},{"type":"Table","id":"13785","label":"13785: Personer, etter arbeidsstyrkestatus, kjønn, alder og utdanningsnivå 2021-2024","description":"","updated":"2025-02-10T07:00:00Z","firstPeriod":"2021","lastPeriod":"2024","category":"public","variableNames":["arbeidsstyrkestatus","kjønn","alder","utdanningsnivå","statistikkvariabel","år"],"source":"Statistisk sentralbyrå","subjectCode":"","timeUnit":"Annual","paths":[[{"id":"al","label":"Arbeid og lønn"},{"id":"al03","label":"Arbeidsledighet"},{"id":"aku","label":"Arbeidskraftundersøkelsen"}],[{"id":"al","label":"Arbeid og lønn"},{"id":"al06","label":"Sysselsetting"},{"id":"aku","label":"Arbeidskraftundersøkelsen"}],[{"id":"in","label":"Innvandring og innvandrere"},{"id":"in01","label":"Arbeid og lønn"},{"id":"aku","label":"Arbeidskraftundersøkelsen"}]],"links":[{"rel":"self","hreflang":"no","href":"https://data.ssb.no/api/pxwebapi/v2-beta/tables/13785?lang=no"},{"rel":"metadata","hreflang":"no","href":"https://data.ssb.no/api/pxwebapi/v2-beta/tables/13785/metadata?lang=no"},{"rel":"data","hreflang":"no","href":"https://data.ssb.no/api/pxwebapi/v2-beta/tables/13785/data?lang=no&outputFormat=json-stat2"}]},{"type":"Table","id":"03777","label":"03777: Personer i arbeidsstyrken, etter kjønn og alder 1972K1-2025K1","description":"","updated":"2025-05-08T06:00:00Z","firstPeriod":"1972K1","lastPeriod":"2025K1","category":"public","variableNames":["alder","kjønn","statistikkvariabel","kvartal"],"source":"Statistisk sentralbyrå","subjectCode":"","timeUnit":"Quarterly","paths":[[{"id":"al","label":"Arbeid og lønn"},{"id":"al03","label":"Arbeidsledighet"},{"id":"aku","label":"Arbeidskraftundersøkelsen"}],[{"id":"al","label":"Arbeid og lønn"},{"id":"al06","label":"Sysselsetting"},{"id":"aku","label":"Arbeidskraftundersøkelsen"}],[{"id":"in","label":"Innvandring og innvandrere"},{"id":"in01","label":"Arbeid og lønn"},{"id":"aku","label":"Arbeidskraftundersøkelsen"}]],"links":[{"rel":"self","hreflang":"no","href":"https://data.ssb.no/api/pxwebapi/v2-beta/tables/03777?lang=no"},{"rel":"metadata","hreflang":"no","href":"https://data.ssb.no/api/pxwebapi/v2-beta/tables/03777/metadata?lang=no"},{"rel":"data","hreflang":"no","href":"https://data.ssb.no/api/pxwebapi/v2-beta/tables/03777/data?lang=no&outputFormat=json-stat2"}]},{"type":"Table","id":"03780","label":"03780: Personer i arbeidsstyrken, etter kjønn og alder 1972-2024","description":"","updated":"2025-02-10T07:00:00Z","firstPeriod":"1972","lastPeriod":"2024","category":"public","variableNames":["alder","kjønn","statistikkvariabel","år"],"source":"Statistisk sentralbyrå","subjectCode":"","timeUnit":"Annual","paths":[[{"id":"al","label":"Arbeid og lønn"},{"id":"al03","label":"Arbeidsledighet"},{"id":"aku","label":"Arbeidskraftundersøkelsen"}],[{"id":"al","label":"Arbeid og lønn"},{"id":"al06","label":"Sysselsetting"},{"id":"aku","label":"Arbeidskraftundersøkelsen"}],[{"id":"in","label":"Innvandring og innvandrere"},{"id":"in01","label":"Arbeid og lønn"},{"id":"aku","label":"Arbeidskraftundersøkelsen"}]],"links":[{"rel":"self","hreflang":"no","href":"https://data.ssb.no/api/pxwebapi/v2-beta/tables/03780?lang=no"},{"rel":"metadata","hreflang":"no","href":"https://data.ssb.no/api/pxwebapi/v2-beta/tables/03780/metadata?lang=no"},{"rel":"data","hreflang":"no","href":"https://data.ssb.no/api/pxwebapi/v2-beta/tables/03780/data?lang=no&outputFormat=json-stat2"}]},{"type":"Table","id":"11433","label":"11433: Strømmer mellom arbeidsstyrkestatuser, etter kjønn 2006K2-2025K1","description":"","updated":"2025-05-08T06:00:00Z","firstPeriod":"2006K2","lastPeriod":"2025K1","category":"public","variableNames":["endring i arbeidsstyrkestatus","kjønn","statistikkvariabel","kvartal"],"source":"Statistisk sentralbyrå","subjectCode":"","timeUnit":"Quarterly","paths":[[{"id":"al","label":"Arbeid og lønn"},{"id":"al03","label":"Arbeidsledighet"},{"id":"aku","label":"Arbeidskraftundersøkelsen"}],[{"id":"al","label":"Arbeid og lønn"},{"id":"al06","label":"Sysselsetting"},{"id":"aku","label":"Arbeidskraftundersøkelsen"}],[{"id":"in","label":"Innvandring og innvandrere"},{"id":"in01","label":"Arbeid og lønn"},{"id":"aku","label":"Arbeidskraftundersøkelsen"}]],"links":[{"rel":"self","hreflang":"no","href":"https://data.ssb.no/api/pxwebapi/v2-beta/tables/11433?lang=no"},{"rel":"metadata","hreflang":"no","href":"https://data.ssb.no/api/pxwebapi/v2-beta/tables/11433/metadata?lang=no"},{"rel":"data","hreflang":"no","href":"https://data.ssb.no/api/pxwebapi/v2-beta/tables/11433/data?lang=no&outputFormat=json-stat2"}]},{"type":"Table","id":"08518","label":"08518: Arbeidsledige, etter kjønn og alder 1972K1-2025K1","description":"","updated":"2025-05-08T06:00:00Z","firstPeriod":"1972K1","lastPeriod":"2025K1","category":"public","variableNames":["kjønn","alder","statistikkvariabel","kvartal"],"source":"Statistisk sentralbyrå","subjectCode":"","timeUnit":"Quarterly","paths":[[{"id":"al","label":"Arbeid og lønn"},{"id":"al03","label":"Arbeidsledighet"},{"id":"aku","label":"Arbeidskraftundersøkelsen"}],[{"id":"al","label":"Arbeid og lønn"},{"id":"al06","label":"Sysselsetting"},{"id":"aku","label":"Arbeidskraftundersøkelsen"}],[{"id":"in","label":"Innvandring og innvandrere"},{"id":"in01","label":"Arbeid og lønn"},{"id":"aku","label":"Arbeidskraftundersøkelsen"}]],"links":[{"rel":"self","hreflang":"no","href":"https://data.ssb.no/api/pxwebapi/v2-beta/tables/08518?lang=no"},{"rel":"metadata","hreflang":"no","href":"https://data.ssb.no/api/pxwebapi/v2-beta/tables/08518/metadata?lang=no"},{"rel":"data","hreflang":"no","href":"https://data.ssb.no/api/pxwebapi/v2-beta/tables/08518/data?lang=no&outputFormat=json-stat2"}]},{"type":"Table","id":"08517","label":"08517: Arbeidsledige, etter kjønn og alder 1972-2024","description":"","updated":"2025-02-10T07:00:00Z","firstPeriod":"1972","lastPeriod":"2024","category":"public","variableNames":["kjønn","alder","statistikkvariabel","år"],"source":"Statistisk sentralbyrå","subjectCode":"","timeUnit":"Annual","paths":[[{"id":"al","label":"Arbeid og lønn"},{"id":"al03","label":"Arbeidsledighet"},{"id":"aku","label":"Arbeidskraftundersøkelsen"}],[{"id":"al","label":"Arbeid og lønn"},{"id":"al06","label":"Sysselsetting"},{"id":"aku","label":"Arbeidskraftundersøkelsen"}],[{"id":"in","label":"Innvandring og innvandrere"},{"id":"in01","label":"Arbeid og lønn"},{"id":"aku","label":"Arbeidskraftundersøkelsen"}]],"links":[{"rel":"self","hreflang":"no","href":"https://data.ssb.no/api/pxwebapi/v2-beta/tables/08517?lang=no"},{"rel":"metadata","hreflang":"no","href":"https://data.ssb.no/api/pxwebapi/v2-beta/tables/08517/metadata?lang=no"},{"rel":"data","hreflang":"no","href":"https://data.ssb.no/api/pxwebapi/v2-beta/tables/08517/data?lang=no&outputFormat=json-stat2"}]},{"type":"Table","id":"04552","label":"04552: Arbeidsledige, etter kjønn og søkingens varighet (1 000 personer) 1996K1-2025K1","description":"","updated":"2025-05-08T06:00:00Z","firstPeriod":"1996K1","lastPeriod":"2025K1","category":"public","variableNames":["kjønn","søkingens varighet","statistikkvariabel","kvartal"],"source":"Statistisk sentralbyrå","subjectCode":"","timeUnit":"Quarterly","paths":[[{"id":"al","label":"Arbeid og lønn"},{"id":"al03","label":"Arbeidsledighet"},{"id":"aku","label":"Arbeidskraftundersøkelsen"}],[{"id":"al","label":"Arbeid og lønn"},{"id":"al06","label":"Sysselsetting"},{"id":"aku","label":"Arbeidskraftundersøkelsen"}],[{"id":"in","label":"Innvandring og innvandrere"},{"id":"in01","label":"Arbeid og lønn"},{"id":"aku","label":"Arbeidskraftundersøkelsen"}]],"links":[{"rel":"self","hreflang":"no","href":"https://data.ssb.no/api/pxwebapi/v2-beta/tables/04552?lang=no"},{"rel":"metadata","hreflang":"no","href":"https://data.ssb.no/api/pxwebapi/v2-beta/tables/04552/metadata?lang=no"},{"rel":"data","hreflang":"no","href":"https://data.ssb.no/api/pxwebapi/v2-beta/tables/04552/data?lang=no&outputFormat=json-stat2"}]},{"type":"Table","id":"04553","label":"04553: Arbeidsledige, etter kjønn og søkingens varighet (1 000 personer) 1996-2024","description":"","updated":"2025-02-10T07:00:00Z","firstPeriod":"1996","lastPeriod":"2024","category":"public","variableNames":["kjønn","søkingens varighet","statistikkvariabel","år"],"source":"Statistisk sentralbyrå","subjectCode":"","timeUnit":"Annual","paths":[[{"id":"al","label":"Arbeid og lønn"},{"id":"al03","label":"Arbeidsledighet"},{"id":"aku","label":"Arbeidskraftundersøkelsen"}],[{"id":"al","label":"Arbeid og lønn"},{"id":"al06","label":"Sysselsetting"},{"id":"aku","label":"Arbeidskraftundersøkelsen"}],[{"id":"in","label":"Innvandring og innvandrere"},{"id":"in01","label":"Arbeid og lønn"},{"id":"aku","label":"Arbeidskraftundersøkelsen"}]],"links":[{"rel":"self","hreflang":"no","href":"https://data.ssb.no/api/pxwebapi/v2-beta/tables/04553?lang=no"},{"rel":"metadata","hreflang":"no","href":"https://data.ssb.no/api/pxwebapi/v2-beta/tables/04553/metadata?lang=no"},{"rel":"data","hreflang":"no","href":"https://data.ssb.no/api/pxwebapi/v2-beta/tables/04553/data?lang=no&outputFormat=json-stat2"}]},{"type":"Table","id":"13891","label":"13891: Arbeidsledige, etter kjønn, hovedsakelig virksomhet og alder 2021K1-2025K1","description":"","updated":"2025-05-08T06:00:00Z","firstPeriod":"2021K1","lastPeriod":"2025K1","category":"public","variableNames":["kjønn","hovedsakelig virksomhet","alder","statistikkvariabel","kvartal"],"source":"Statistisk sentralbyrå","subjectCode":"","timeUnit":"Quarterly","paths":[[{"id":"al","label":"Arbeid og lønn"},{"id":"al03","label":"Arbeidsledighet"},{"id":"aku","label":"Arbeidskraftundersøkelsen"}],[{"id":"al","label":"Arbeid og lønn"},{"id":"al06","label":"Sysselsetting"},{"id":"aku","label":"Arbeidskraftundersøkelsen"}],[{"id":"in","label":"Innvandring og innvandrere"},{"id":"in01","label":"Arbeid og lønn"},{"id":"aku","label":"Arbeidskraftundersøkelsen"}]],"links":[{"rel":"self","hreflang":"no","href":"https://data.ssb.no/api/pxwebapi/v2-beta/tables/13891?lang=no"},{"rel":"metadata","hreflang":"no","href":"https://data.ssb.no/api/pxwebapi/v2-beta/tables/13891/metadata?lang=no"},{"rel":"data","hreflang":"no","href":"https://data.ssb.no/api/pxwebapi/v2-beta/tables/13891/data?lang=no&outputFormat=json-stat2"}]},{"type":"Table","id":"13892","label":"13892: Arbeidsledige, etter kjønn, hovedsakelig virksomhet og alder 2021-2024","description":"","updated":"2025-02-10T07:00:00Z","firstPeriod":"2021","lastPeriod":"2024","category":"public","variableNames":["kjønn","hovedsakelig virksomhet","alder","statistikkvariabel","år"],"source":"Statistisk sentralbyrå","subjectCode":"","timeUnit":"Annual","paths":[[{"id":"al","label":"Arbeid og lønn"},{"id":"al03","label":"Arbeidsledighet"},{"id":"aku","label":"Arbeidskraftundersøkelsen"}],[{"id":"al","label":"Arbeid og lønn"},{"id":"al06","label":"Sysselsetting"},{"id":"aku","label":"Arbeidskraftundersøkelsen"}],[{"id":"in","label":"Innvandring og innvandrere"},{"id":"in01","label":"Arbeid og lønn"},{"id":"aku","label":"Arbeidskraftundersøkelsen"}]],"links":[{"rel":"self","hreflang":"no","href":"https://data.ssb.no/api/pxwebapi/v2-beta/tables/13892?lang=no"},{"rel":"metadata","hreflang":"no","href":"https://data.ssb.no/api/pxwebapi/v2-beta/tables/13892/metadata?lang=no"},{"rel":"data","hreflang":"no","href":"https://data.ssb.no/api/pxwebapi/v2-beta/tables/13892/data?lang=no&outputFormat=json-stat2"}]},{"type":"Table","id":"14454","label":"14454: Arbeidsledige, etter kjønn, alder og arbeidssøkerstatus i NAV (1 000 personer) 2021-2024","description":"","updated":"2025-02-10T07:00:00Z","firstPeriod":"2021","lastPeriod":"2024","category":"public","variableNames":["kjønn","alder","arbeidssøkerstatus i NAV","statistikkvariabel","år"],"source":"Statistisk sentralbyrå","subjectCode":"","timeUnit":"Annual","paths":[[{"id":"al","label":"Arbeid og lønn"},{"id":"al03","label":"Arbeidsledighet"},{"id":"aku","label":"Arbeidskraftundersøkelsen"}],[{"id":"al","label":"Arbeid og lønn"},{"id":"al06","label":"Sysselsetting"},{"id":"aku","label":"Arbeidskraftundersøkelsen"}],[{"id":"in","label":"Innvandring og innvandrere"},{"id":"in01","label":"Arbeid og lønn"},{"id":"aku","label":"Arbeidskraftundersøkelsen"}]],"links":[{"rel":"self","hreflang":"no","href":"https://data.ssb.no/api/pxwebapi/v2-beta/tables/14454?lang=no"},{"rel":"metadata","hreflang":"no","href":"https://data.ssb.no/api/pxwebapi/v2-beta/tables/14454/metadata?lang=no"},{"rel":"data","hreflang":"no","href":"https://data.ssb.no/api/pxwebapi/v2-beta/tables/14454/data?lang=no&outputFormat=json-stat2"}]}],"page":{"pageNumber":1,"pageSize":20,"totalElements":7510,"totalPages":376,"links":[{"rel":"next","hreflang":"no","href":"https://data.ssb.no/api/pxwebapi/v2-beta/tables/?lang=no&pagesize=20&pageNumber=2"},{"rel":"last","hreflang":"no","href":"https://data.ssb.no/api/pxwebapi/v2-beta/tables/?lang=no&pagesize=20&pageNumber=376"}]},"links":[{"rel":"self","hreflang":"no","href":"https://data.ssb.no/api/pxwebapi/v2-beta/tables/?lang=no&pagesize=20&pageNumber=1"}]}